[
  {
    "id": "1",
    "name": "Sherwood",
    "state": "AR",
    "latitude": 34.8150907,
    "longitude": -92.2243153
  },
  {
    "id": "2",
    "name": "Monroe",
    "state": "LA",
    "latitude": 32.5102427,
    "longitude": -92.1032411
  },
  {
    "id": "3",
    "name": "Lake Charles",
    "state": "LA",
    "latitude": 30.2072293,
    "longitude": -93.2061609
  },
  {
    "id": "4",
    "name": "Horn Lake",
    "state": "MS",
    "latitude": 34.9553719,
    "longitude": -90.0348139
  },
  {
    "id": "5",
    "name": "Rogers",
    "state": "AR",
    "latitude": 36.3320197,
    "longitude": -94.1185366
  },
  {
    "id": "6",
    "name": "Homer",
    "state": "LA",
    "latitude": 32.7918679,
    "longitude": -93.0557319
  },
  {
    "id": "7",
    "name": "Terrytown",
    "state": "LA",
    "latitude": 29.910205,
    "longitude": -90.0325709
  },
  {
    "id": "8",
    "name": "Covington",
    "state": "LA",
    "latitude": 30.4758091,
    "longitude": -90.1014992
  },
  {
    "id": "9",
    "name": "Natchez",
    "state": "MS",
    "latitude": 31.5604076,
    "longitude": -91.403171
  },
  {
    "id": "10",
    "name": "Raymond",
    "state": "MS",
    "latitude": 32.2595022,
    "longitude": -90.4228708
  },
  {
    "id": "11",
    "name": "New Iberia",
    "state": "LA",
    "latitude": 30.0035365,
    "longitude": -91.8187285
  },
  {
    "id": "12",
    "name": "Jonesboro",
    "state": "AR",
    "latitude": 35.8272257,
    "longitude": -90.6949871
  },
  {
    "id": "13",
    "name": "Little Rock",
    "state": "AR",
    "latitude": 34.7465071,
    "longitude": -92.2896267
  },
  {
    "id": "14",
    "name": "Hammond",
    "state": "LA",
    "latitude": 30.5043583,
    "longitude": -90.4611995
  },
  {
    "id": "15",
    "name": "Gainesville",
    "state": "AL",
    "latitude": 32.820964,
    "longitude": -88.158914
  },
  {
    "id": "16",
    "name": "Meridian",
    "state": "MS",
    "latitude": 32.3643098,
    "longitude": -88.703656
  },
  {
    "id": "17",
    "name": "Bastrop",
    "state": "LA",
    "latitude": 32.7761446,
    "longitude": -91.9082967
  },
  {
    "id": "18",
    "name": "Springdale",
    "state": "AR",
    "latitude": 36.1867442,
    "longitude": -94.1288142
  },
  {
    "id": "19",
    "name": "Kenner",
    "state": "LA",
    "latitude": 29.9942265,
    "longitude": -90.2417806
  },
  {
    "id": "20",
    "name": "Petal",
    "state": "MS",
    "latitude": 31.3465627,
    "longitude": -89.2600605
  },
  {
    "id": "21",
    "name": "Greenville",
    "state": "MS",
    "latitude": 33.4000633,
    "longitude": -91.0551312
  },
  {
    "id": "22",
    "name": "Tupelo",
    "state": "MS",
    "latitude": 34.2576067,
    "longitude": -88.7033859
  },
  {
    "id": "23",
    "name": "Madison",
    "state": "MS",
    "latitude": 32.4618086,
    "longitude": -90.1153638
  },
  {
    "id": "24",
    "name": "Baton Rouge",
    "state": "LA",
    "latitude": 30.4507936,
    "longitude": -91.1391153
  },
  {
    "id": "25",
    "name": "Rayne",
    "state": "LA",
    "latitude": 30.234925,
    "longitude": -92.2684617
  },
  {
    "id": "26",
    "name": "Alexandria",
    "state": "LA",
    "latitude": 31.2909782,
    "longitude": -92.4616292
  },
  {
    "id": "27",
    "name": "Belzoni",
    "state": "MS",
    "latitude": 33.1842912,
    "longitude": -90.4892563
  },
  {
    "id": "28",
    "name": "Thibodaux",
    "state": "LA",
    "latitude": 29.7957633,
    "longitude": -90.822871
  },
  {
    "id": "29",
    "name": "Crystal Springs",
    "state": "MS",
    "latitude": 31.9871757,
    "longitude": -90.356182
  },
  {
    "id": "30",
    "name": "Jeanerette",
    "state": "LA",
    "latitude": 29.9110378,
    "longitude": -91.6634484
  },
  {
    "id": "31",
    "name": "Forest",
    "state": "MS",
    "latitude": 32.3645888,
    "longitude": -89.4742348
  },
  {
    "id": "32",
    "name": "West Monroe",
    "state": "LA",
    "latitude": 32.5184775,
    "longitude": -92.1476353
  },
  {
    "id": "33",
    "name": "Chalmette",
    "state": "LA",
    "latitude": 29.9427892,
    "longitude": -89.9629372
  },
  {
    "id": "34",
    "name": "Luling",
    "state": "LA",
    "latitude": 29.9321498,
    "longitude": -90.3664695
  },
  {
    "id": "35",
    "name": "Mountain Home",
    "state": "AR",
    "latitude": 36.3361391,
    "longitude": -92.3801187
  },
  {
    "id": "36",
    "name": "Houma",
    "state": "LA",
    "latitude": 29.5957696,
    "longitude": -90.7195348
  },
  {
    "id": "37",
    "name": "Mccomb",
    "state": "LA",
    "latitude": 31.2439331,
    "longitude": -90.4537161
  },
  {
    "id": "38",
    "name": "Greenbrier",
    "state": "AR",
    "latitude": 35.2339274,
    "longitude": -92.3877837
  },
  {
    "id": "39",
    "name": "Franklin",
    "state": "LA",
    "latitude": 29.7960399,
    "longitude": -91.5016718
  },
  {
    "id": "40",
    "name": "Bull Shoals",
    "state": "AR",
    "latitude": 36.383956,
    "longitude": -92.5815527
  },
  {
    "id": "41",
    "name": "Grenada",
    "state": "MS",
    "latitude": 33.7690049,
    "longitude": -89.8084192
  },
  {
    "id": "42",
    "name": "Gretna",
    "state": "LA",
    "latitude": 29.9146493,
    "longitude": -90.0539604
  },
  {
    "id": "43",
    "name": "Yazoo City",
    "state": "MS",
    "latitude": 32.8550965,
    "longitude": -90.4056469
  },
  {
    "id": "44",
    "name": "Shreveport",
    "state": "LA",
    "latitude": 32.4707862,
    "longitude": -93.7559378
  },
  {
    "id": "45",
    "name": "Walls",
    "state": "MS",
    "latitude": 34.9578728,
    "longitude": -90.1517605
  },
  {
    "id": "46",
    "name": "Vicksburg",
    "state": "MS",
    "latitude": 32.3528055,
    "longitude": -90.8777342
  },
  {
    "id": "47",
    "name": "Canton",
    "state": "MS",
    "latitude": 32.612602,
    "longitude": -90.0367512
  },
  {
    "id": "48",
    "name": "Fayetteville",
    "state": "AR",
    "latitude": 36.0625843,
    "longitude": -94.1574328
  },
  {
    "id": "49",
    "name": "Hattiesburg",
    "state": "MS",
    "latitude": 31.3271189,
    "longitude": -89.2903392
  },
  {
    "id": "50",
    "name": "Gonzales",
    "state": "LA",
    "latitude": 30.2385294,
    "longitude": -90.9200987
  },
  {
    "id": "51",
    "name": "Aberdeen",
    "state": "MS",
    "latitude": 33.8250296,
    "longitude": -88.5435191
  },
  {
    "id": "52",
    "name": "Waldo",
    "state": "AR",
    "latitude": 33.351514,
    "longitude": -93.2957251
  },
  {
    "id": "53",
    "name": "Conway",
    "state": "AR",
    "latitude": 35.0886963,
    "longitude": -92.4421011
  },
  {
    "id": "54",
    "name": "Beaumont",
    "state": "MS",
    "latitude": 31.1695099,
    "longitude": -88.9201226
  },
  {
    "id": "55",
    "name": "Bentonville",
    "state": "AR",
    "latitude": 36.3728538,
    "longitude": -94.2088172
  },
  {
    "id": "56",
    "name": "Texarkana",
    "state": "AR",
    "latitude": 33.4254259,
    "longitude": -94.0430937
  },
  {
    "id": "57",
    "name": "Magnolia",
    "state": "AR",
    "latitude": 33.2670725,
    "longitude": -93.2393341
  },
  {
    "id": "58",
    "name": "Thayer",
    "state": "MO",
    "latitude": 36.5245064,
    "longitude": -91.5381967
  },
  {
    "id": "59",
    "name": "Breaux Bridge",
    "state": "LA",
    "latitude": 30.2735323,
    "longitude": -91.8992837
  },
  {
    "id": "60",
    "name": "Oxford",
    "state": "MS",
    "latitude": 34.3663773,
    "longitude": -89.5187664
  },
  {
    "id": "61",
    "name": "Dover",
    "state": "AR",
    "latitude": 35.4017857,
    "longitude": -93.1142228
  },
  {
    "id": "62",
    "name": "Mendenhall",
    "state": "MS",
    "latitude": 31.9622006,
    "longitude": -89.8702079
  },
  {
    "id": "63",
    "name": "Lexa",
    "state": "AR",
    "latitude": 34.5971607,
    "longitude": -90.7503729
  },
  {
    "id": "64",
    "name": "Jonesboro",
    "state": "LA",
    "latitude": 32.2414179,
    "longitude": -92.7156017
  },
  {
    "id": "65",
    "name": "West Memphis",
    "state": "AR",
    "latitude": 35.1464797,
    "longitude": -90.1845388
  },
  {
    "id": "66",
    "name": "Marion",
    "state": "AR",
    "latitude": 35.2150084,
    "longitude": -90.1976950
  },
  {
    "id": "67",
    "name": "Marrero",
    "state": "LA",
    "latitude": 29.8993723,
    "longitude": -90.1003506
  },
  {
    "id": "68",
    "name": "Eutaw",
    "state": "AL",
    "latitude": 32.8406848,
    "longitude": -87.8875144
  },
  {
    "id": "69",
    "name": "Byhalia",
    "state": "MS",
    "latitude": 34.8723179,
    "longitude": -89.6906396
  },
  {
    "id": "70",
    "name": "Bellamy",
    "state": "AL",
    "latitude": 32.4490146,
    "longitude": -88.1332566
  },
  {
    "id": "71",
    "name": "Fort Smith",
    "state": "AR",
    "latitude": 35.3784666,
    "longitude": -94.3996456
  },
  {
    "id": "72",
    "name": "Clinton",
    "state": "MS",
    "latitude": 32.3410552,
    "longitude": -90.3215983
  },
  {
    "id": "73",
    "name": "Starkville",
    "state": "MS",
    "latitude": 33.4503998,
    "longitude": -88.8183872
  },
  {
    "id": "74",
    "name": "Little Rock",
    "state": "AR",
    "latitude": 34.7465071,
    "longitude": -92.2896267
  },
  {
    "id": "75",
    "name": "Belzoni",
    "state": "MS",
    "latitude": 33.1842912,
    "longitude": -90.4892563
  },
  {
    "id": "76",
    "name": "Prescott",
    "state": "AR",
    "latitude": 33.8026107,
    "longitude": -93.3810057
  },
  {
    "id": "77",
    "name": "Prairieville",
    "state": "LA",
    "latitude": 30.3122527,
    "longitude": -90.9497329
  },
  {
    "id": "78",
    "name": "Mount Vernon",
    "state": "AR",
    "latitude": 35.2261544,
    "longitude": -92.1238757
  },
  {
    "id": "79",
    "name": "Grambling",
    "state": "LA",
    "latitude": 32.5276503,
    "longitude": -92.7140403
  },
  {
    "id": "80",
    "name": "Paragould",
    "state": "AR",
    "latitude": 36.0584021,
    "longitude": -90.4973286
  },
  {
    "id": "81",
    "name": "Kosciusko",
    "state": "MS",
    "latitude": 33.0576295,
    "longitude": -89.5875764
  },
  {
    "id": "82",
    "name": "Mandeville",
    "state": "LA",
    "latitude": 30.3582305,
    "longitude": -90.0657477
  },
  {
    "id": "83",
    "name": "Memphis",
    "state": "TN",
    "latitude": 35.1335022,
    "longitude": -89.9668758
  },
  {
    "id": "84",
    "name": "Leslie",
    "state": "AR",
    "latitude": 35.8303873,
    "longitude": -92.5578551
  },
  {
    "id": "85",
    "name": "Jackson",
    "state": "MS",
    "latitude": 32.3086744,
    "longitude": -90.1983063
  },
  {
    "id": "86",
    "name": "Church Point",
    "state": "LA",
    "latitude": 30.4031037,
    "longitude": -92.2148413
  },
  {
    "id": "87",
    "name": "New Orleans",
    "state": "LA",
    "latitude": 29.9759983,
    "longitude": -90.0782127
  },
  {
    "id": "88",
    "name": "Arabi",
    "state": "LA",
    "latitude": 29.9543702,
    "longitude": -90.0053477
  },
  {
    "id": "89",
    "name": "Harvey",
    "state": "LA",
    "latitude": 29.9035387,
    "longitude": -90.0772944
  },
  {
    "id": "90",
    "name": "Youngsville",
    "state": "LA",
    "latitude": 30.0996471,
    "longitude": -91.9901206
  },
  {
    "id": "91",
    "name": "Richland",
    "state": "MS",
    "latitude": 32.2393031,
    "longitude": -90.1653578
  },
  {
    "id": "92",
    "name": "Winnsboro",
    "state": "LA",
    "latitude": 32.1618782,
    "longitude": -91.7226934
  },
  {
    "id": "93",
    "name": "Sheridan",
    "state": "AR",
    "latitude": 34.3100971,
    "longitude": -92.4013484
  },
  {
    "id": "94",
    "name": "Middleton",
    "state": "TN",
    "latitude": 35.0645446,
    "longitude": -88.8910247
  },
  {
    "id": "95",
    "name": "Pine Bluff",
    "state": "AR",
    "latitude": 34.2157064,
    "longitude": -92.0140402
  },
  {
    "id": "96",
    "name": "North Little Rock",
    "state": "AR",
    "latitude": 34.769536,
    "longitude": -92.2670941
  },
  {
    "id": "97",
    "name": "Jefferson",
    "state": "LA",
    "latitude": 29.9660147,
    "longitude": -90.1530686
  },
  {
    "id": "98",
    "name": "Lafayette",
    "state": "LA",
    "latitude": 30.2043259,
    "longitude": -92.0298813
  }
]